1.000000000000000000e+00 4.385937500000000000e+01 1.483664894909137555e+00
2.000000000000000000e+00 6.629687500000000000e+01 8.589742940091715795e-01
4.000000000000000000e+00 6.771875000000000000e+01 8.840862975654404377e-01
